…
- This summary helps us explore each attribute quickly. We notice that
  some attributes have a minimum value of zero (total_step,
  total_distance, calories). Let us explore this observation.

``` r
# Check where total_steps is zero
filter(daily_activity, total_steps == 0) 
```

    # A tibble: 77 × 15
       id         activity…¹ total…² total…³ track…⁴ logge…⁵ very_…⁶ moder…⁷ light…⁸
       <chr>      <date>       <dbl>   <dbl>   <dbl>   <dbl>   <dbl>   <dbl>   <dbl>
     1 1503960366 2016-05-12       0       0       0       0       0       0       0
     2 1844505072 2016-04-24       0       0       0       0       0       0       0
     3 1844505072 2016-04-25       0       0       0       0       0       0       0
     4 1844505072 2016-04-26       0       0       0       0       0       0       0
     5 1844505072 2016-05-02       0       0       0       0       0       0       0
     6 1844505072 2016-05-07       0       0       0       0       0       0       0
     7 1844505072 2016-05-08       0       0       0       0       0       0       0
     8 1844505072 2016-05-09       0       0       0       0       0       0       0
     9 1844505072 2016-05-10       0       0       0       0       0       0       0
    10 1844505072 2016-05-11       0       0       0       0       0       0       0
    # … with 67 more rows, 6 more variables: sedentary_active_distance <dbl>,
    #   very_active_minutes <dbl>, fairly_active_minutes <dbl>,
    #   lightly_active_minutes <dbl>, sedentary_minutes <dbl>, calories <dbl>, and
    #   abbreviated variable names ¹​activity_date, ²​total_steps, ³​total_distance,
    #   ⁴​tracker_distance, ⁵​logged_activities_distance, ⁶​very_active_distance,
    #   ⁷​moderately_active_distance, ⁸​light_active_distance
…
``` r
# Check where total_distance is zero
filter(daily_activity, total_distance == 0)
```

    # A tibble: 78 × 15
       id         activity…¹ total…² total…³ track…⁴ logge…⁵ very_…⁶ moder…⁷ light…⁸
       <chr>      <date>       <dbl>   <dbl>   <dbl>   <dbl>   <dbl>   <dbl>   <dbl>
     1 1503960366 2016-05-12       0       0       0       0       0       0       0
     2 1844505072 2016-04-24       0       0       0       0       0       0       0
     3 1844505072 2016-04-25       0       0       0       0       0       0       0
     4 1844505072 2016-04-26       0       0       0       0       0       0       0
     5 1844505072 2016-04-27       4       0       0       0       0       0       0
     6 1844505072 2016-05-02       0       0       0       0       0       0       0
     7 1844505072 2016-05-07       0       0       0       0       0       0       0
     8 1844505072 2016-05-08       0       0       0       0       0       0       0
     9 1844505072 2016-05-09       0       0       0       0       0       0       0
    10 1844505072 2016-05-10       0       0       0       0       0       0       0
    # … with 68 more rows, 6 more variables: sedentary_active_distance <dbl>,
    #   very_active_minutes <dbl>, fairly_active_minutes <dbl>,
    #   lightly_active_minutes <dbl>, sedentary_minutes <dbl>, calories <dbl>, and
    #   abbreviated variable names ¹​activity_date, ²​total_steps, ³​total_distance,
    #   ⁴​tracker_distance, ⁵​logged_activities_distance, ⁶​very_active_distance,
    #   ⁷​moderately_active_distance, ⁸​light_active_distance

- From our inspection above, we can see that we just need to delete the
  entries where total_steps is zero and will take take care of the rest.

``` r
daily_activity_clean <-
  filter(daily_activity,
         total_steps != 0,
         total_distance != 0,
         calories != 0)
daily_activity_clean
```

    # A tibble: 862 × 15
       id         activity…¹ total…² total…³ track…⁴ logge…⁵ very_…⁶ moder…⁷ light…⁸
       <chr>      <date>       <dbl>   <dbl>   <dbl>   <dbl>   <dbl>   <dbl>   <dbl>
     1 1503960366 2016-04-12   13162    8.5     8.5        0    1.88   0.550    6.06
     2 1503960366 2016-04-13   10735    6.97    6.97       0    1.57   0.690    4.71
     3 1503960366 2016-04-14   10460    6.74    6.74       0    2.44   0.400    3.91
     4 1503960366 2016-04-15    9762    6.28    6.28       0    2.14   1.26     2.83
     5 1503960366 2016-04-16   12669    8.16    8.16       0    2.71   0.410    5.04
     6 1503960366 2016-04-17    9705    6.48    6.48       0    3.19   0.780    2.51
     7 1503960366 2016-04-18   13019    8.59    8.59       0    3.25   0.640    4.71
     8 1503960366 2016-04-19   15506    9.88    9.88       0    3.53   1.32     5.03
     9 1503960366 2016-04-20   10544    6.68    6.68       0    1.96   0.480    4.24
    10 1503960366 2016-04-21    9819    6.34    6.34       0    1.34   0.350    4.65
    # … with 852 more rows, 6 more variables: sedentary_active_distance <dbl>,
    #   very_active_minutes <dbl>, fairly_active_minutes <dbl>,
    #   lightly_active_minutes <dbl>, sedentary_minutes <dbl>, calories <dbl>, and
    #   abbreviated variable names ¹​activity_date, ²​total_steps, ³​total_distance,
    #   ⁴​tracker_distance, ⁵​logged_activities_distance, ⁶​very_active_distance,
    #   ⁷​moderately_active_distance, ⁸​light_active_distance
…
#### Categorical variables

``` r
# Subset numeric columns 

select_if(daily_activity_clean, negate(is.numeric))
```

    # A tibble: 862 × 2
       id         activity_date
       <chr>      <date>       
     1 1503960366 2016-04-12   
     2 1503960366 2016-04-13   
     3 1503960366 2016-04-14   
     4 1503960366 2016-04-15   
     5 1503960366 2016-04-16   
     6 1503960366 2016-04-17   
     7 1503960366 2016-04-18   
     8 1503960366 2016-04-19   
     9 1503960366 2016-04-20   
    10 1503960366 2016-04-21   
    # … with 852 more rows
…
<img src="Bellabeat_case_study_draft1_files/figure-gfm/unnamed-chunk-35-1.png" style="display: block; margin: auto;" />

``` r
# percent_of_max > 75%

percent_of_max_top_75 <- filter(count_max_ratio, percent_of_max >=75)
percent_of_max_top_75 
```

    # A tibble: 23 × 3
       id         count percent_of_max
       <chr>      <int>          <dbl>
     1 1624580081    31            100
     2 2022484408    31            100
     3 2026352035    31            100
     4 2320127002    31            100
     5 2873212765    31            100
     6 4319703577    31            100
     7 4388161847    31            100
     8 4445114986    31            100
     9 4558609924    31            100
    10 5553957443    31            100
    # … with 13 more rows
…
<img src="Bellabeat_case_study_draft1_files/figure-gfm/unnamed-chunk-45-1.png" style="display: block; margin: auto;" />

``` r
# Steps averages by IDs
steps_df <- daily_activity_clean %>%
  group_by(id) %>%
  summarise(average_steps = mean(total_steps), median_steps =median(total_steps), n = n())

steps_df
```

    # A tibble: 33 × 4
       id         average_steps median_steps     n
       <chr>              <dbl>        <dbl> <int>
     1 1503960366        12521.       12438     30
     2 1624580081         5744.        4026     31
     3 1644430081         7283.        6684.    30
     4 1844505072         3999.        4036.    20
     5 1927972279         1671.        1675     17
     6 2022484408        11371.       11548     31
     7 2026352035         5567.        5528     31
     8 2320127002         4717.        5057     31
     9 2347167796         9520.        9781     18
    10 2873212765         7556.        7762     31
    # … with 23 more rows
…
<img src="Bellabeat_case_study_draft1_files/figure-gfm/unnamed-chunk-49-1.png" style="display: block; margin: auto;" />

``` r
# Total distance by IDs
t_distance_df <- daily_activity_clean %>%
  group_by(id) %>%
  summarise(average_t_distance = mean(total_distance ), median_t_distance =median(total_distance), n = n())

t_distance_df
```

    # A tibble: 33 × 4
       id         average_t_distance median_t_distance     n
       <chr>                   <dbl>             <dbl> <int>
     1 1503960366               8.07              8.08    30
     2 1624580081               3.91              2.62    31
     3 1644430081               5.30              4.86    30
     4 1844505072               2.64              2.68    20
     5 1927972279               1.16              1.16    17
     6 2022484408               8.08              8.29    31
     7 2026352035               3.45              3.45    31
     8 2320127002               3.19              3.41    31
     9 2347167796               6.36              6.54    18
    10 2873212765               5.10              5.24    31
    # … with 23 more rows
…
# Print the count
count
```

    [1] 42

``` r
# Subset the dataset
subset_data <- joined_activity_sleep[joined_activity_sleep$sedentary_minutes < joined_activity_sleep$total_minutes_asleep, ]

# View the subset data
subset_data
```

    # A tibble: 42 × 21
       id         activity…¹ total…² total…³ track…⁴ logge…⁵ very_…⁶ moder…⁷ light…⁸
       <chr>      <date>       <dbl>   <dbl>   <dbl>   <dbl>   <dbl>   <dbl>   <dbl>
     1 1503960366 2016-04-17    9705   6.48    6.48        0  3.19     0.780   2.51 
     2 1503960366 2016-05-08   10060   6.58    6.58        0  3.53     0.320   2.73 
     3 1644430081 2016-05-02    3758   2.73    2.73        0  0.0700   0.310   2.35 
     4 1844505072 2016-04-15    3844   2.54    2.54        0  0        0       2.54 
     5 1844505072 2016-04-30    4014   2.67    2.67        0  0        0       2.65 
     6 1844505072 2016-05-01    2573   1.70    1.70        0  0        0.260   1.45 
     7 1927972279 2016-04-12     678   0.470   0.470       0  0        0       0.470
     8 2026352035 2016-04-23   12357   7.71    7.71        0  0        0       7.71 
     9 2026352035 2016-05-04    6564   4.07    4.07        0  0        0       4.07 
    10 2026352035 2016-05-06    8198   5.08    5.08        0  0        0       5.08 
    # … with 32 more rows, 12 more variables: sedentary_active_distance <dbl>,
    #   very_active_minutes <dbl>, fairly_active_minutes <dbl>,
    #   lightly_active_minutes <dbl>, sedentary_minutes <dbl>, calories <dbl>,
    #   total_sleep_records <dbl>, total_minutes_asleep <dbl>,
    #   total_time_in_bed <dbl>, sedentary_min_awake <dbl>,
    #   sedentary_hours_awake <dbl>, sedentary_percentage_diff <dbl>, and
    #   abbreviated variable names ¹​activity_date, ²​total_steps, ³​total_distance, …

``` r
# Check column names of the subset data
subset_data %>%
select(sedentary_minutes, total_minutes_asleep, sedentary_min_awake, calories,id, activity_date, total_steps, total_distance, very_active_minutes )
```

    # A tibble: 42 × 9
       sedentary_…¹ total…² seden…³ calor…⁴ id    activity…⁵ total…⁶ total…⁷ very_…⁸
              <dbl>   <dbl>   <dbl>   <dbl> <chr> <date>       <dbl>   <dbl>   <dbl>
     1          539     700    -161    1728 1503… 2016-04-17    9705   6.48       38
     2          574     594     -20    1740 1503… 2016-05-08   10060   6.58       44
     3          682     796    -114    2580 1644… 2016-05-02    3758   2.73        1
     4          527     644    -117    1725 1844… 2016-04-15    3844   2.54        0
     5          218     722    -504    1763 1844… 2016-04-30    4014   2.67        0
     6          585     590      -5    1541 1844… 2016-05-01    2573   1.70        0
     7          734     750     -16    2220 1927… 2016-04-12     678   0.470       0
     8          458     522     -64    1916 2026… 2016-04-23   12357   7.71        0
     9          530     538      -8    1658 2026… 2016-05-04    6564   4.07        0
    10          511     524     -13    1736 2026… 2016-05-06    8198   5.08        0
    # … with 32 more rows, and abbreviated variable names ¹​sedentary_minutes,
    #   ²​total_minutes_asleep, ³​sedentary_min_awake, ⁴​calories, ⁵​activity_date,
    #   ⁶​total_steps, ⁷​total_distance, ⁸​very_active_minutes
…
- By eliminating negative values from “sedentary_min_awake,” the
  resulting values now reflect a more realistic scenario.

``` r
# Total sedentary minutes awake by IDs
t_sedentary_df <- clean_subset %>%
  group_by(id) %>%
  summarise(average_sedentary_min_awake = mean(sedentary_min_awake),
            median_sedentary_min_awake = median(sedentary_min_awake), n = n())

t_sedentary_df
```

    # A tibble: 23 × 4
       id         average_sedentary_min_awake median_sedentary_min_awake     n
       <chr>                            <dbl>                      <dbl> <int>
     1 1503960366                        442.                       433     23
     2 1644430081                        873.                       854      3
     3 1927972279                        704.                       675      4
     4 2026352035                        181.                       158     24
     5 2320127002                       1068                       1068      1
     6 2347167796                        245.                       220     13
     7 3977333714                        423.                       420     28
     8 4020332650                        492.                       440.     8
     9 4319703577                        209.                       148     23
    10 4388161847                        345                        294     23
    # … with 13 more rows
…
    [1] 4552 4392 4501 4546 4900 4547 4398

``` r
# Calories averages by IDs
calories_df <- daily_activity_clean %>%
  group_by(id) %>%
  summarise(average_calories = mean(calories), median_calories = median(calories))

calories_df
```

    # A tibble: 33 × 3
       id         average_calories median_calories
       <chr>                 <dbl>           <dbl>
     1 1503960366            1877.           1848 
     2 1624580081            1483.           1435 
     3 1644430081            2811.           2802.
     4 1844505072            1732.           1752.
     5 1927972279            2303.           2324 
     6 2022484408            2510.           2529 
     7 2026352035            1541.           1521 
     8 2320127002            1724.           1779 
     9 2347167796            2140.           2095 
    10 2873212765            1917.           1907 
    # … with 23 more rows
…
``` r
activity_minutes_df <- daily_activity_clean %>%
  group_by(id) %>%
  summarise(
    average_very_active_minutes = mean(very_active_minutes),
    average_fairly_active_minutes = mean(fairly_active_minutes),
    average_lightly_active_minutes = mean(lightly_active_minutes),
    average_sedentary_minutes = mean(sedentary_minutes)
  )

activity_minutes_df
```

    # A tibble: 33 × 5
       id         average_very_active_minutes average_fairly_activ…¹ avera…² avera…³
       <chr>                            <dbl>                  <dbl>   <dbl>   <dbl>
     1 1503960366                     40                      19.8     227.     828.
     2 1624580081                      8.68                    5.81    153.    1258.
     3 1644430081                      9.57                   21.4     178.    1162.
     4 1844505072                      0.2                     2       179.    1115.
     5 1927972279                      2.41                    1.41     70.4   1244.
     6 2022484408                     36.3                    19.4     257.    1113.
     7 2026352035                      0.0968                  0.258   257.     689.
     8 2320127002                      1.35                    2.58    198.    1220.
     9 2347167796                     14.3                    21.8     267.     727.
    10 2873212765                     14.1                     6.13    308     1097.
    # … with 23 more rows, and abbreviated variable names
    #   ¹​average_fairly_active_minutes, ²​average_lightly_active_minutes,
    #   ³​average_sedentary_minutes
…
<img src="Bellabeat_case_study_draft1_files/figure-gfm/unnamed-chunk-88-1.png" style="display: block; margin: auto;" />

``` r
# Sleep duration averages by IDs with standard deviation and count (n)
sleep_df <- daily_sleep_clean %>%
  group_by(id) %>%
  summarise(average_sleep_minutes = mean(total_minutes_asleep),
            standard_deviation_sleep_minutes = sd(total_minutes_asleep),
            n = n())

sleep_df
```

    # A tibble: 24 × 4
       id         average_sleep_minutes standard_deviation_sleep_minutes     n
       <chr>                      <dbl>                            <dbl> <int>
     1 1503960366                  360.                            100.     25
     2 1644430081                  294                             335.      4
     3 1844505072                  652                              66.4     3
     4 1927972279                  417                             219.      5
     5 2026352035                  506.                             42.3    28
     6 2320127002                   61                              NA       1
     7 2347167796                  447.                             43.0    15
     8 3977333714                  294.                             63.9    28
     9 4020332650                  349.                            141.      8
    10 4319703577                  477.                            114.     26
    # … with 14 more rows

``` r
# Drop ID "2320127002" due to insufficient data for computing mean and standard deviation.
sleep_df <- sleep_df %>% 
filter(id != "2320127002")
```

``` r
sleep_df 
```

    # A tibble: 23 × 4
       id         average_sleep_minutes standard_deviation_sleep_minutes     n
       <chr>                      <dbl>                            <dbl> <int>
     1 1503960366                  360.                            100.     25
     2 1644430081                  294                             335.      4
     3 1844505072                  652                              66.4     3
     4 1927972279                  417                             219.      5
     5 2026352035                  506.                             42.3    28
     6 2347167796                  447.                             43.0    15
     7 3977333714                  294.                             63.9    28
     8 4020332650                  349.                            141.      8
     9 4319703577                  477.                            114.     26
    10 4388161847                  400.                            146.     23
    # … with 13 more rows
…
sleep_df
```

    # A tibble: 24 × 9
       id             n average_sl…¹ avera…² stand…³ stand…⁴ time_…⁵ avera…⁶ sd_aw…⁷
       <chr>      <int>        <dbl>   <dbl>   <dbl>   <dbl>   <dbl>   <dbl>   <dbl>
     1 1503960366    25         6.00    6.39   1.67    1.63    0.382   0.382    1.08
     2 1644430081     4         4.9     5.77   5.58    6.84    0.867   0.867    1.08
     3 1844505072     3        10.9    16.0    1.11    0       5.15    5.15     1.08
     4 1927972279     5         6.95    7.30   3.65    3.73    0.347   0.347    1.08
     5 2026352035    28         8.44    8.96   0.704   0.707   0.524   0.524    1.08
     6 2320127002     1         1.02    1.15  NA      NA       0.133   0.133    1.08
     7 2347167796    15         7.45    8.19   0.716   0.827   0.742   0.742    1.08
     8 3977333714    28         4.89    7.69   1.07    1.24    2.79    2.79     1.08
     9 4020332650     8         5.82    6.33   2.35    2.64    0.506   0.506    1.08
    10 4319703577    26         7.94    8.37   1.90    1.97    0.422   0.422    1.08
    # … with 14 more rows, and abbreviated variable names ¹​average_sleep_hours,
    #   ²​average_time_in_bed_hours, ³​standard_deviation_sleep_hours,
    #   ⁴​standard_deviation_time_in_bed_hours, ⁵​time_difference_hours,
    #   ⁶​average_awake_in_bed_hours, ⁷​sd_awake_in_bed_hours
…
